…
}  
```

Generate 5000 datasets from the model: x ∼ Normal\[mu,sigma\]

``` r
sim_5000 =
  rerun(5000, sim_1(samp_size = 30)) %>% 
  bind_rows()

sim_5000
```

    ## # A tibble: 5,000 x 2
    ##    estimate p.value
    ##       <dbl>   <dbl>
    ##  1   0.394   0.649 
    ##  2   1.56    0.195 
    ##  3   2.18    0.0363
    ##  4   0.126   0.895 
    ##  5  -0.278   0.806 
    ##  6   0.0257  0.978 
    ##  7   0.686   0.341 
    ##  8   0.280   0.765 
    ##  9   0.0198  0.981 
    ## 10  -0.919   0.269 
    ## # … with 4,990 more rows
…
sim_5000_2
```

    ## # A tibble: 35,000 x 3
    ##       mu estimate p.value
    ##    <dbl>    <dbl>   <dbl>
    ##  1     0  -1.91    0.0245
    ##  2     0   0.514   0.624 
    ##  3     0   0.509   0.624 
    ##  4     0  -0.198   0.813 
    ##  5     0   1.01    0.228 
    ##  6     0   0.0546  0.938 
    ##  7     0  -1.92    0.0170
    ##  8     0  -1.26    0.105 
    ##  9     0  -0.118   0.892 
    ## 10     0  -0.528   0.596 
    ## # … with 34,990 more rows
…
